{
    "KPlugin": {
        "Authors": [
            {
                "Email": "jgrulich@redhat.com",
                "Name": "Jan Grulich",
                "Name[ar]": "Jan Grulich",
                "Name[az]": "Jan Grulich",
                "Name[bg]": "Jan Grulich",
                "Name[ca@valencia]": "Jan Grulich",
                "Name[ca]": "Jan Grulich",
                "Name[cs]": "Jan Grulich",
                "Name[de]": "Jan Grulich",
                "Name[en_GB]": "Jan Grulich",
                "Name[es]": "Jan Grulich",
                "Name[eu]": "Jan Grulich",
                "Name[fi]": "Jan Grulich",
                "Name[fr]": "Jan Grulich",
                "Name[hu]": "Jan Grulich",
                "Name[ia]": "Jan Grulich",
                "Name[is]": "Jan Grulich",
                "Name[it]": "Jan Grulich",
                "Name[ka]": "Jan Grulich",
                "Name[ko]": "Jan Grulich",
                "Name[lt]": "Jan Grulich",
                "Name[nl]": "Jan Grulich",
                "Name[nn]": "Jan Gruhlich",
                "Name[pl]": "Jan Grulich",
                "Name[pt]": "Jan Grulich",
                "Name[pt_BR]": "Jan Grulich",
                "Name[ro]": "Jan Grulich",
                "Name[ru]": "Jan Grulich",
                "Name[sk]": "Jan Grulich",
                "Name[sl]": "Jan Grulich",
                "Name[sv]": "Jan Grulich",
                "Name[ta]": "ஜான் குரூலிச்",
                "Name[tr]": "Jan Grulich",
                "Name[uk]": "Jan Grulich",
                "Name[x-test]": "xxJan Grulichxx",
                "Name[zh_CN]": "Jan Grulich",
                "Name[zh_TW]": "Jan Grulich"
            }
        ],
        "Category": "VPNService",
        "Description": "Compatible with Microsoft and other SSTP VPN servers",
        "Description[ar]": "متوافق مع «مايكروسوفت» وخواديم SSTP VPN الأخرى",
        "Description[az]": "Microsoft və digərSSTP VPN serverləri ilə uyğun",
        "Description[bg]": "Съвместим с Microsoft и други SSTP VPN сървъри",
        "Description[ca@valencia]": "Compatible amb Microsoft i altres servidors VPN sobre SSTP",
        "Description[ca]": "Compatible amb Microsoft i altres servidors VPN sobre SSTP",
        "Description[cs]": "Kompatibilní se servery Microsoft  a jinými SSTP VPN",
        "Description[de]": "Mit SSTP-VPN-Servern von Microsoft und anderen kompatibel",
        "Description[en_GB]": "Compatible with Microsoft and other SSTP VPN servers",
        "Description[es]": "Compatible con Microsoft y otros servidores SSTP VPN",
        "Description[eu]": "Microsoft eta beste SSTP VPN zerbitzari batzuekin bateragarria",
        "Description[fi]": "Yhteensopiva Microsoftin ja muiden SSTP-VPN-palvelinten kanssa",
        "Description[fr]": "Compatible avec les serveurs Microsoft et autres VPN « SSTP »",
        "Description[hu]": "Kompatibilis a Microsoft és más SSTP VPN kiszolgálókkal",
        "Description[ia]": "Compatibile con Microsoft e altere servitores SSTP VPN",
        "Description[is]": "Samhæft við Microsoft og aðra SSTP VPN netþjóna",
        "Description[it]": "Compatibile con server VPN SSTP di Microsoft e altri",
        "Description[ka]": "Microsoft და სხვა SSTP VPN სერვერებთან თავსებადი",
        "Description[ko]": "Microsoft 및 기타 SSTP VPN 서버와 호환됨",
        "Description[lt]": "Suderinamas su „Microsoft“ ir kitais SSTP VPN serveriais",
        "Description[nl]": "Compatibel met Microsoft en andere SSTP VPN servers",
        "Description[nn]": "Kompatibel med Microsoft og andre SSTP VPN-tenarar",
        "Description[pl]": "Zgodny z serwerami VPN Microsoft-u i innymi SSTP",
        "Description[pt]": "Compatível com os servidores de VPN SSTP da Microsoft e outros",
        "Description[pt_BR]": "Compatível com servidores VPN SSTP da Microsoft e outros",
        "Description[ru]": "Совместимая с серверами SSTP от Microsoft и другими",
        "Description[sk]": "Kompatibilné so servermi Microsoft a inými servermi SSTP VPN",
        "Description[sl]": "Združljiv z Microsoftovimi in drugimi SSTP strežniki VPN",
        "Description[sv]": "Kompatibelt med Microsoft och andra SSTP VPN-servrar",
        "Description[tr]": "Microsoft ve diğer SSTP VPN sunucuları ile uyumlu",
        "Description[uk]": "Сумісні з Microsoft та іншими серверами VPN SSTP",
        "Description[x-test]": "xxCompatible with Microsoft and other SSTP VPN serversxx",
        "Description[zh_CN]": "兼容 Microsoft 和其他 SSTP VPN 服务器",
        "Description[zh_TW]": "與微軟和其他 SSTP VPN 伺服器相容",
        "EnabledByDefault": false,
        "Icon": "",
        "Id": "plasmanetworkmanagement_sstpui",
        "License": "GPL",
        "Name": "Secure Socket Tunneling Protocol (SSTP)",
        "Name[ar]": "ميفاق المقبس الآمن النفقي (SSTP)",
        "Name[az]": "Soketlərin təhlükəsiz tunneləşməsi protokolu (SSTP)",
        "Name[bg]": "Secure Socket Tunneling Protocol (SSTP)",
        "Name[ca@valencia]": "Protocol per a crear túnels amb sòcols segurs (SSTP)",
        "Name[ca]": "Protocol per a crear túnels amb sòcols segurs (SSTP)",
        "Name[cs]": "Secure Socket Tunneling Protocol (SSTP)",
        "Name[da]": "Secure Socket tunneling-protokol (SSTP)",
        "Name[de]": "Secure-Socket-Tunnel-Protokoll (SSTP)",
        "Name[el]": "Πρωτόκολλο Secure Socket Tunneling (SSTP)",
        "Name[en_GB]": "Secure Socket Tunneling Protocol (SSTP)",
        "Name[es]": "Protocolo de túneles de conexiones seguras (SSTP)",
        "Name[et]": "Secure Socket Tunneling Protocol (SSTP)",
        "Name[eu]": "Socket seguruen tunel-protokoloa (SSTP)",
        "Name[fi]": "Secure Socket -tunnelointiyhteyskäytäntö (SSTP)",
        "Name[fr]": "Protocole tunnel socket sécurisé (SSTP)",
        "Name[gl]": "Protocolo de canalización de sócket seguro (SSTP)",
        "Name[he]": "Secure Socket Tunneling Protocol (SSTP)",
        "Name[hsb]": "Secure Socket Tunneling Protocol (SSTP)",
        "Name[hu]": "Secure Socket Tunneling Protocol (SSTP)",
        "Name[ia]": "Secure Socket Tunneling Protocol (SSTP)",
        "Name[id]": "Secure Socket Tunneling Protocol (SSTP)",
        "Name[is]": "Secure Socket Tunneling Protocol (SSTP)",
        "Name[it]": "Secure Socket Tunneling Protocol (SSTP)",
        "Name[ja]": "セキュアソケット トンネリングプロトコル (SSTP)",
        "Name[ka]": "Secure Socket Tunneling Protocol (SSTP)",
        "Name[ko]": "보안 소켓 터널링 프로토콜(SSTP)",
        "Name[lt]": "Saugaus lizdo tuneliavimo protokolas (SSTP)",
        "Name[nl]": "Secure Socket Tunneling Protocol (SSTP)",
        "Name[nn]": "Secure Socket Tunneling Protocol (SSTP)",
        "Name[pa]": "ਸਕਿਉਰ ਸਾਕਟ ਟਨਲਿੰਗ ਪਰੋਟੋਕਾਲ (SSTP)",
        "Name[pl]": "Protokół tunelujący bezpiecznego gniazda (SSTP)",
        "Name[pt]": "Protocolo de Túneis por 'Socket' Seguro (SSTP)",
        "Name[pt_BR]": "Secure Socket Tunneling Protocol (SSTP)",
        "Name[ro]": "Secure Socket Tunneling Protocol (SSTP)",
        "Name[ru]": "Протокол защищённого туннелирования сокетов (SSTP)",
        "Name[sk]": "Secure Socket Tunneling Protocol (SSTP)",
        "Name[sl]": "Protokol za tuneliranje z varnim vtičem (SSTP)",
        "Name[sr@ijekavian]": "ССТП (безбедни сокетни тунелски протокол)",
        "Name[sr@ijekavianlatin]": "SSTP (bezbedni soketni tunelski protokol)",
        "Name[sr@latin]": "SSTP (bezbedni soketni tunelski protokol)",
        "Name[sr]": "ССТП (безбедни сокетни тунелски протокол)",
        "Name[sv]": "Säkert uttagstunnelprotokoll (SSTP)",
        "Name[tr]": "Güvenli Yuva Tünel Protokolü (SSTP)",
        "Name[uk]": "Протокол тунелювання із безпечними сокетами (SSTP)",
        "Name[x-test]": "xxSecure Socket Tunneling Protocol (SSTP)xx",
        "Name[zh_CN]": "安全套接字隧道协议 (SSTP)",
        "Name[zh_TW]": "安全 Socket 通道協定 (SSTP)",
        "Version": "0.1",
        "Website": ""
    },
    "X-NetworkManager-Services": "org.freedesktop.NetworkManager.sstp"
}
